…
```

```{r,eval=FALSE}
#count the total number of rides per each day for each hour per start timing for each bike id for each user-type
  year_2021_df_7 %>% 
    group_by(usertype, bikeid,start_hour, start_timing ) %>% 
    count(day_of_order) %>% 
    print(n=200)
```

##### Results

```{r, eval=FALSE}
# A tibble: 841 × 6
# Groups:   usertype, bikeid, start_hour, start_timing [121]
   usertype bikeid       start_hour start_timing day_of_order     n
   <chr>    <chr>        <chr>      <chr>        <chr>        <int>
 1 casual   classic_bike 00         Night        Friday        2472
 2 casual   classic_bike 00         Night        Monday        1721
 3 casual   classic_bike 00         Night        Saturday      6616
 4 casual   classic_bike 00         Night        Sunday        8602
 5 casual   classic_bike 00         Night        Thursday      1394
 6 casual   classic_bike 00         Night        Tuesday        870
 7 casual   classic_bike 00         Night        Wednesday     1095
 8 casual   classic_bike 01         Night        Friday        1589
 9 casual   classic_bike 01         Night        Monday        1032
10 casual   classic_bike 01         Night        Saturday      6217
# … with 831 more rows
# ℹ Use `print(n = ...)` to see more rows
```
…
```{r,eval=FALSE}

#count the total number of rides per each month to know the busy day for start timing and hour
  year_2021_df_7 %>% 
    group_by(month,day_of_order) %>% 
    count(start_timing) %>% 
    print(n=2000) 
```

##### Results

```{r, eval=FALSE}
# A tibble: 336 × 4
# Groups:   month, day_of_order [84]
   month day_of_order start_timing     n
   <chr> <chr>        <chr>        <int>
 1 April Friday       Afternoon    16614
 2 April Friday       Evening      16417
 3 April Friday       Morning      10696
 4 April Friday       Night         4394
 5 April Monday       Afternoon    10885
 6 April Monday       Evening      13517
 7 April Monday       Morning       8098
 8 April Monday       Night         2858
 9 April Saturday     Afternoon    19525
10 April Saturday     Evening      10508
# … with 326 more rows
# ℹ Use `print(n = ...)` to see more rows
```

```{r,eval=FALSE}
#count the total number of rides per each month to know the busy day for start timing and hour
  year_2021_df_7 %>% 
    group_by(month,day_of_order, start_timing) %>% 
    count(start_hour) %>% 
    print(n=2000) 
```

##### Results

```{r, eval=FALSE}
# A tibble: 2,016 × 5
# Groups:   month, day_of_order, start_timing [336]
   month day_of_order start_timing start_hour     n
   <chr> <chr>        <chr>        <chr>      <int>
 1 April Friday       Afternoon    12          2655
 2 April Friday       Afternoon    13          2829
 3 April Friday       Afternoon    14          3024
 4 April Friday       Afternoon    15          3588
 5 April Friday       Afternoon    16          4518
 6 April Friday       Evening      17          5887
 7 April Friday       Evening      18          5057
 8 April Friday       Evening      19          3540
 9 April Friday       Evening      20          1933
10 April Friday       Morning      05           418
# … with 2,006 more rows
# ℹ Use `print(n = ...)` to see more rows
```

```{r,eval=FALSE}
#count the total number of rides per each month to know the busy day for start timing and hour, user-type and bike id
  year_2021_df_7 %>% 
    group_by(usertype, bikeid,month,day_of_order, start_timing) %>% 
    count(start_hour) %>% 
    print(n=2000) 
```

##### Results

```{r, eval=FALSE}
# A tibble: 9,953 × 7
# Groups:   usertype, bikeid, month, day_of_order, start_timing [1,681]
   usertype bikeid       month day_of_order start_timing start_hour     n
   <chr>    <chr>        <chr> <chr>        <chr>        <chr>      <int>
 1 casual   classic_bike April Friday       Afternoon    12           574
 2 casual   classic_bike April Friday       Afternoon    13           685
 3 casual   classic_bike April Friday       Afternoon    14           762
 4 casual   classic_bike April Friday       Afternoon    15           805
 5 casual   classic_bike April Friday       Afternoon    16           927
 6 casual   classic_bike April Friday       Evening      17          1408
 7 casual   classic_bike April Friday       Evening      18          1178
 8 casual   classic_bike April Friday       Evening      19           875
 9 casual   classic_bike April Friday       Evening      20           423
10 casual   classic_bike April Friday       Morning      05            34
# … with 9,943 more rows
# ℹ Use `print(n = ...)` to see more rows
```
…
#### Total rides(From_station)

```{r,eval=FALSE}
#----------------------------station-------------------
#count the number of the rides by from_station
 year_2021_df_7 %>% 
    count(from_station_name) %>% 
    print(n=836) 
```

##### Results

```{r, eval=FALSE}
# A tibble: 836 × 2
# Rowwise: 
   from_station_name              n
   <chr>                      <int>
 1 2112 w peterson ave          802
 2 63rd st beach               1244
 3 900 w harrison st           7685
 4 aberdeen st & jackson blvd 10997
 5 aberdeen st & monroe st    10359
 6 aberdeen st & randolph st   9218
 7 ada st & 113th st             30
 8 ada st & washington blvd    8414
 9 adler planetarium          12773
10 albany ave & 26th st         228
# … with 826 more rows
# ℹ Use `print(n = ...)` to see more rows
```

```{r,eval=FALSE}
#count the number of rides by from_station for each user-type
  year_2021_df_7 %>% 
    group_by(usertype) %>% 
    count(from_station_name) %>% 
    print(n=1637)  
```

##### Results

```{r, eval=FALSE}
# A tibble: 1,637 × 3
# Groups:   usertype [2]
   usertype from_station_name              n
   <chr>    <chr>                      <int>
 1 casual   2112 w peterson ave          320
 2 casual   63rd st beach                727
 3 casual   900 w harrison st           2273
 4 casual   aberdeen st & jackson blvd  3285
 5 casual   aberdeen st & monroe st     3562
 6 casual   aberdeen st & randolph st   3598
 7 casual   ada st & 113th st             20
 8 casual   ada st & washington blvd    2807
 9 casual   adler planetarium           7986
10 casual   albany ave & 26th st         127
# … with 1,627 more rows
# ℹ Use `print(n = ...)` to see more rows
```

```{r,eval=FALSE}
#count the rides used by each type of bikes from the stations
  year_2021_df_7 %>% 
    group_by(bikeid) %>% 
    count(from_station_name) %>% 
    print(n=3000)
```

##### Results

```{r, eval=FALSE}
# A tibble: 2,193 × 3
# Groups:   bikeid [3]
   bikeid       from_station_name              n
   <chr>        <chr>                      <int>
 1 classic_bike 2112 w peterson ave          504
 2 classic_bike 63rd st beach                811
 3 classic_bike 900 w harrison st           5688
 4 classic_bike aberdeen st & jackson blvd  7942
 5 classic_bike aberdeen st & monroe st     7461
 6 classic_bike aberdeen st & randolph st   6397
 7 classic_bike ada st & 113th st              7
 8 classic_bike ada st & washington blvd    6174
 9 classic_bike adler planetarium           8609
10 classic_bike albany ave & 26th st         143
# … with 2,183 more rows
# ℹ Use `print(n = ...)` to see more rows
```

```{r,eval=FALSE}
#count the rides using the timing, day and season per each user-type
  year_2021_df_7 %>% 
    group_by(usertype, bikeid, start_timing) %>% 
    count(from_station_name) %>% 
    print(n=4000)
```

##### Results

```{r, eval=FALSE}
# A tibble: 13,700 × 5
# Groups:   usertype, bikeid, start_timing [21]
   usertype bikeid       start_timing from_station_name              n
   <chr>    <chr>        <chr>        <chr>                      <int>
 1 casual   classic_bike Afternoon    2112 w peterson ave           61
 2 casual   classic_bike Afternoon    63rd st beach                175
 3 casual   classic_bike Afternoon    900 w harrison st            441
 4 casual   classic_bike Afternoon    aberdeen st & jackson blvd   739
 5 casual   classic_bike Afternoon    aberdeen st & monroe st      787
 6 casual   classic_bike Afternoon    aberdeen st & randolph st    640
 7 casual   classic_bike Afternoon    ada st & 113th st              3
 8 casual   classic_bike Afternoon    ada st & washington blvd     492
 9 casual   classic_bike Afternoon    adler planetarium           2296
10 casual   classic_bike Afternoon    albany ave & 26th st          23
# … with 13,690 more rows
# ℹ Use `print(n = ...)` to see more rows
```

```{r,eval=FALSE}
year_2021_df_7 %>% 
    group_by(usertype, bikeid, day_of_order) %>% 
    count(from_station_name) %>% 
    print(n=4000)
```

##### Results

```{r, eval=FALSE}
# A tibble: 23,385 × 5
# Groups:   usertype, bikeid, day_of_order [36]
   usertype bikeid       day_of_order from_station_name                 n
   <chr>    <chr>        <chr>        <chr>                         <int>
 1 casual   classic_bike Friday       2112 w peterson ave              16
 2 casual   classic_bike Friday       63rd st beach                    46
 3 casual   classic_bike Friday       900 w harrison st               192
 4 casual   classic_bike Friday       aberdeen st & jackson blvd      280
 5 casual   classic_bike Friday       aberdeen st & monroe st         325
 6 casual   classic_bike Friday       aberdeen st & randolph st       337
 7 casual   classic_bike Friday       ada st & washington blvd        276
 8 casual   classic_bike Friday       adler planetarium               616
 9 casual   classic_bike Friday       albany ave & 26th st             11
10 casual   classic_bike Friday       albany ave & bloomingdale ave   144
# … with 23,375 more rows
# ℹ Use `print(n = ...)` to see more rows
```

```{r,eval=FALSE}
year_2021_df_7 %>% 
    group_by(usertype, bikeid, season) %>% 
    count(from_station_name) %>% 
    print(n=4000)
```

##### Results

```{r, eval=FALSE}
# A tibble: 13,146 × 5
# Groups:   usertype, bikeid, season [21]
   usertype bikeid       season from_station_name                 n
   <chr>    <chr>        <chr>  <chr>                         <int>
 1 casual   classic_bike Autumn 2112 w peterson ave              53
 2 casual   classic_bike Autumn 63rd st beach                    81
 3 casual   classic_bike Autumn 900 w harrison st               488
 4 casual   classic_bike Autumn aberdeen st & jackson blvd      637
 5 casual   classic_bike Autumn aberdeen st & monroe st         512
 6 casual   classic_bike Autumn aberdeen st & randolph st       592
 7 casual   classic_bike Autumn ada st & washington blvd        502
 8 casual   classic_bike Autumn adler planetarium              1044
 9 casual   classic_bike Autumn albany ave & 26th st             19
10 casual   classic_bike Autumn albany ave & bloomingdale ave   239
# … with 13,136 more rows
# ℹ Use `print(n = ...)` to see more rows
```
…
#### From_Station

```{r,eval=FALSE}
#station (total)
     year_2021_df_7 %>% 
      group_by(from_station_name) %>% 
      summarize(mean(time_duration)) %>% 
       print(n=1000)
```

##### Results

```{r, eval=FALSE}
# A tibble: 836 × 2
   from_station_name          `mean(time_duration)`
   <chr>                                      <dbl>
 1 2112 w peterson ave                         20.1
 2 63rd st beach                               60.4
 3 900 w harrison st                           14.6
 4 aberdeen st & jackson blvd                  14.0
 5 aberdeen st & monroe st                     19.1
 6 aberdeen st & randolph st                   18.0
 7 ada st & 113th st                           24.6
 8 ada st & washington blvd                    14.6
 9 adler planetarium                           34.0
10 albany ave & 26th st                        27.2
# … with 826 more rows
# ℹ Use `print(n = ...)` to see more rows
```

```{r,eval=FALSE}
#station (user-type)
     year_2021_df_7 %>% 
       group_by(usertype,from_station_name) %>% 
       summarize(mean(time_duration)) %>% 
       print(n=2000)
```

##### Results

```{r, eval=FALSE}
# A tibble: 1,637 × 3
# Groups:   usertype [2]
   usertype from_station_name          `mean(time_duration)`
   <chr>    <chr>                                      <dbl>
 1 casual   2112 w peterson ave                         23.6
 2 casual   63rd st beach                               84.3
 3 casual   900 w harrison st                           24.0
 4 casual   aberdeen st & jackson blvd                  21.2
 5 casual   aberdeen st & monroe st                     34.1
 6 casual   aberdeen st & randolph st                   27.3
 7 casual   ada st & 113th st                           34.6
 8 casual   ada st & washington blvd                    19.2
 9 casual   adler planetarium                           40.9
10 casual   albany ave & 26th st                        32.8
# … with 1,627 more rows
# ℹ Use `print(n = ...)` to see more rows
```
…
#### From_Station

```{r,eval=FALSE}
#station (total)
     year_2021_df_7 %>% 
       group_by(from_station_name) %>% 
       summarize(mean(distance)) %>% 
       print(n=1000)
```

##### Results

```{r, eval=FALSE}
# A tibble: 836 × 2
   from_station_name          `mean(distance)`
   <chr>                                 <dbl>
 1 2112 w peterson ave                   1848.
 2 63rd st beach                         2548.
 3 900 w harrison st                     1351.
 4 aberdeen st & jackson blvd            1490.
 5 aberdeen st & monroe st               1984.
 6 aberdeen st & randolph st             1724.
 7 ada st & 113th st                     1256.
 8 ada st & washington blvd              2060.
 9 adler planetarium                     1954.
10 albany ave & 26th st                  3469.
# … with 826 more rows
# ℹ Use `print(n = ...)` to see more rows
```

```{r,eval=FALSE}
#station (user-type)
     year_2021_df_7 %>% 
       group_by(usertype,from_station_name) %>% 
       summarize(mean(distance)) %>% 
       print(n=2000)
```

##### Results

```{r, eval=FALSE}
# A tibble: 1,637 × 3
# Groups:   usertype [2]
   usertype from_station_name          `mean(distance)`
   <chr>    <chr>                                 <dbl>
 1 casual   2112 w peterson ave                   2028.
 2 casual   63rd st beach                         2395.
 3 casual   900 w harrison st                     1494.
 4 casual   aberdeen st & jackson blvd            1659.
 5 casual   aberdeen st & monroe st               2237.
 6 casual   aberdeen st & randolph st             1985.
 7 casual   ada st & 113th st                     1882.
 8 casual   ada st & washington blvd              2142.
 9 casual   adler planetarium                     1889.
10 casual   albany ave & 26th st                  3281.
# … with 1,627 more rows
# ℹ Use `print(n = ...)` to see more rows
```
…
